…
# m <- umxACE(selDVs = c("X", "Y"), selCovs = c("Birth_year_first", "Birth_year_second"), sep = "", dzData = prep$DZ, mzData = prep$MZ, tryHard = "yes")
# mv1 <- umxACEv(selDVs = c("X", "Y"), selCovs = c("age"), sep = "", dzData = prep$DZ, mzData = prep$MZ, tryHard = "yes")


m <- fit_ACE(prep, extra_tries = 1)
```

``` r
p <- get_estimates(m)
p
#> # A tibble: 147 x 4
#>    Param   Value       SD model  
#>    <chr>   <dbl>    <dbl> <chr>  
#>  1 cov   0.332   NaN      ACE_biv
#>  2 covA  0.115     0.0337 ACE_biv
#>  3 covC  0.00991   0.0310 ACE_biv
#>  4 covE  0.206     0.0111 ACE_biv
#>  5 bivA  0.348     0.116  ACE_biv
#>  6 bivC  0.0299    0.0925 ACE_biv
#>  7 bivE  0.622     0.0387 ACE_biv
#>  8 rg    0.258     0.0815 ACE_biv
#>  9 rc    1.00      0.0214 ACE_biv
#> 10 re    0.485     0.0294 ACE_biv
#> # i 137 more rows
```
